Chapter 11 Antibiotic resistance analysis | AlberdiLab | Comparative metagenomics
…
# Apply the function to all AMR columns
amr_names <- colnames(amr_counts)[-1] # everything except mag_id

fisher_results <- map_df(amr_names, ~ run_fisher(.x, amr_binary))

# Adjust for multiple testing (FDR)
fisher_results <- fisher_results %>%
  mutate(p.adj = p.adjust(p.value, method = "fdr")) %>%
  #filter(p.adj < 0.05) %>%
  arrange(p.adj)

print(fisher_results)

# A tibble: 25 × 8
   estimate p.value conf.low conf.high method                             alternative AMR_Target                    p.adj
      <dbl>   <dbl>    <dbl>     <dbl> <chr>                              <chr>       <chr>                         <dbl>
 1    0     0.00433   0          0.516 Fisher's Exact Test for Count Data two.sided   OLEANDOMYCIN                  0.108
 2    6.13  0.0428    0.814     72.5   Fisher's Exact Test for Count Data two.sided   AMINOGLYCOSIDE                0.309
 3    0.348 0.0495    0.108      1.13  Fisher's Exact Test for Count Data two.sided   AZITHROMYCIN/CLINDAMYCIN/ERY… 0.309
 4    7.88  0.0350    1.10     347.    Fisher's Exact Test for Count Data two.sided   CLINDAMYCIN/MACROLIDE/STREPT… 0.309
 5    0.425 0.104     0.137      1.34  Fisher's Exact Test for Count Data two.sided   CEPHALOSPORIN                 0.522
 6    5.69  0.175     0.284    348.    Fisher's Exact Test for Count Data two.sided   BLEOMYCIN                     0.632
 7  Inf     0.269     0.0697   Inf     Fisher's Exact Test for Count Data two.sided   TRIMETHOPRIM                  0.632
 8    0.555 0.278     0.178      1.80  Fisher's Exact Test for Count Data two.sided   AMIKACIN/KANAMYCIN/TOBRAMYCIN 0.632
 9    3.62  0.278     0.457    167.    Fisher's Exact Test for Count Data two.sided   CLARITHROMYCIN                0.632
10    3.62  0.278     0.457    167.    Fisher's Exact Test for Count Data two.sided   STREPTOMYCIN                  0.632
# ℹ 15 more rows
…
