Chapter 5 Data statistics | AlberdiLab | Comparative metagenomics
…
Warning: st_centroid assumes attributes are constant over geometries

mag_locations

# A tibble: 91 × 28
   ID        species       completeness contamination genome_size    GC    N50 contigs host_species host_order host_class
   <chr>     <chr>                <dbl>         <dbl>       <dbl> <dbl>  <dbl>   <dbl> <chr>        <chr>      <chr>     
 1 EHM016228 s__Parabacte…         97.3          0.92     4815605  45    32654     224 Strix aluco  Strigifor… Aves      
 2 EHM016318 s__Parabacte…         93.6          1.81     4085923  45.3   7435     685 Strix aluco  Strigifor… Aves      
 3 EHM016582 s__Parabacte…         92.2          1.17     3706610  45.7   7507     618 Strix aluco  Strigifor… Aves      
 4 EHM016991 s__Parabacte…         99.0          0.38     4748219  44.9 117248      76 Podarcis pi… Squamata   Reptilia  
 5 EHM020917 s__Parabacte…         90.3          1.73     3472909  45.6  11869     414 Strix aluco  Strigifor… Aves      
 6 EHM023585 s__Parabacte…         92.8          2.18     3889519  45.6   8649     607 Sciurus vul… Rodentia   Mammalia  
 7 EHM023781 s__Parabacte…         93.5          1.92     4159834  45.6  16836     369 Podarcis ga… Squamata   Reptilia  
 8 EHM027637 s__Parabacte…         93.5          2.05     4160022  45.3  12792     526 Cathartes a… Accipitri… Aves      
 9 EHM028668 s__Parabacte…        100.0          0.87     4684324  45    73796     107 Timon lepid… Squamata   Reptilia  
10 EHM029564 s__Parabacte…         95.9          1.5      4476906  45    41913     152 Timon lepid… Squamata   Reptilia  
# ℹ 81 more rows
# ℹ 17 more variables: assembly_type <chr>, isolation_source <chr>, mag_name <chr>, eha_number <chr>, locality <chr>,
#   country <chr>, extra_locality <chr>, source <chr>, gtdb_taxonomy <chr>, mimag_high_quality <lgl>,
#   mimag_medium_quality <lgl>, gtdb_representative <lgl>, ncbi_date <date>, continent <chr>, X <dbl>, Y <dbl>,
#   geometry <MULTIPOLYGON [°]>
…
