Chapter 3 EHI MAGs exploration | AlberdiLab | Comparative metagenomics
…
species_selection <- species_hostclass_counts %>%
  filter(n_host_classes >= 3)

species_selection

# A tibble: 34 × 5
   species                         n_mags n_host_classes host_classes                       phylum             
   <chr>                            <int>          <int> <chr>                              <chr>              
 1 s__Hafnia alvei                     61              4 Amphibia, Aves, Mammalia, Reptilia p__Pseudomonadota  
 2 s__Pseudomonas aeruginosa           99              4 Amphibia, Aves, Mammalia, Reptilia p__Pseudomonadota  
 3 s__Aeromonas encheleia              18              3 Amphibia, Mammalia, Reptilia       p__Pseudomonadota  
 4 s__Bacteroides caccae               13              3 Aves, Mammalia, Reptilia           p__Bacteroidota    
 5 s__Bacteroides fragilis             20              3 Aves, Mammalia, Reptilia           p__Bacteroidota    
 6 s__Bacteroides nordii               23              3 Aves, Mammalia, Reptilia           p__Bacteroidota    
 7 s__Bacteroides thetaiotaomicron     42              3 Aves, Mammalia, Reptilia           p__Bacteroidota    
 8 s__Bacteroides uniformis            84              3 Aves, Mammalia, Reptilia           p__Bacteroidota    
 9 s__Bacteroides xylanisolvens        27              3 Aves, Mammalia, Reptilia           p__Bacteroidota    
10 s__Bilophila wadsworthia            12              3 Aves, Mammalia, Reptilia           p__Desulfobacterota
# ℹ 24 more rows
…
