Chapter 10 Functional Analysis (HUMAN) | AlberdiLab | Comparative metagenomics
…
            AlberdiLab | Comparative metagenomics

Chapter 10 Functional Analysis (HUMAN)

10.1 Functional overview

n_genes <- genome_annotations %>%
  group_by(genome_filename) %>%
  summarize(n_genes = n())

n_genes

# A tibble: 72 × 2
   genome_filename n_genes
   <chr>             <int>
 1 EHM016228          4139
 2 EHM016318          3839
 3 EHM016582          3426
 4 EHM016991          3950
 5 EHM020917          3139
 6 EHM023585          3569
 7 EHM023781          3572
 8 EHM027637          3731
 9 EHM028668          3922
10 EHM029564          3752
# ℹ 62 more rows
…
cluster4_MAGs <- mags_by_cluster[[4]]
genome_metadata %>% filter(ID %in% cluster4_MAGs)

# A tibble: 35 × 21
   ID              species completeness contamination genome_size    GC    N50 contigs host_species host_order host_class
   <chr>           <chr>          <dbl>         <dbl>       <dbl> <dbl>  <dbl>   <dbl> <chr>        <chr>      <chr>     
 1 EHM016991       s__Par…         99.0          0.38     4748219  44.9 117248      76 Podarcis pi… Squamata   Reptilia  
 2 EHM023585       s__Par…         92.8          2.18     3889519  45.6   8649     607 Sciurus vul… Rodentia   Mammalia  
 3 EHM027637       s__Par…         93.5          2.05     4160022  45.3  12792     526 Cathartes a… Accipitri… Aves      
 4 EHM031743       s__Par…         93.5          1.99     4260825  45    21325     296 Canis famil… Carnivora  Mammalia  
 5 EHM046460       s__Par…         99.5          1.66     4335884  45    38719     181 Cathartes a… Accipitri… Aves      
 6 EHM047216       s__Par…         99.9          1.04     4517903  45    63927     124 Lepus europ… Lagomorpha Mammalia  
 7 EHM064868       s__Par…         93.9          0.57     4141119  45    13237     435 Lepus europ… Lagomorpha Mammalia  
 8 EHM067538       s__Par…         93.1          1.71     4147480  46    12692     485 Lepus europ… Lagomorpha Mammalia  
 9 GCA_008679285.1 <NA>            96.0          1.54     4711604  45.1 307675      21 <NA>         <NA>       <NA>      
10 GCA_934828805.1 <NA>            97.1          0.54     4665583  45.0 106519      67 <NA>         <NA>       <NA>      
# ℹ 25 more rows
# ℹ 10 more variables: assembly_type <chr>, isolation_source <chr>, mag_name <chr>, eha_number <chr>, source <chr>,
#   gtdb_taxonomy <chr>, ncbi_country <chr>, mimag_high_quality <lgl>, mimag_medium_quality <lgl>,
#   gtdb_representative <lgl>
…
