Chapter 5 Functional Analysis | AlberdiLab | Comparative metagenomics
…
cluster4_MAGs <- mags_by_cluster[[4]]
combined_metadata %>% filter(ID %in% cluster4_MAGs)

# A tibble: 44 × 15
   ID          species completeness contamination    size GC       N50 contigs host_species host_order host_class
   <chr>       <chr>          <dbl>         <dbl>   <dbl> <chr>  <dbl>   <dbl> <chr>        <chr>      <chr>     
 1 EHM016991   s__Par…         99.0          0.38 4748219 44.9… 117248      76 Podarcis pi… Squamata   Reptilia  
 2 EHM023585   s__Par…         92.8          2.18 3889519 45.6…   8649     607 Sciurus vul… Rodentia   Mammalia  
 3 EHM027637   s__Par…         93.5          2.05 4160022 45.3…  12792     526 Cathartes a… Accipitri… Aves      
 4 EHM031743   s__Par…         93.5          1.99 4260825 45.0…  21325     296 Canis famil… Carnivora  Mammalia  
 5 EHM046460   s__Par…         99.5          1.66 4335884 45.0…  38719     181 Cathartes a… Accipitri… Aves      
 6 EHM047216   s__Par…         99.9          1.04 4517903 45.0…  63927     124 Lepus europ… Lagomorpha Mammalia  
 7 EHM064868   s__Par…         93.9          0.57 4141119 45.0…  13237     435 Lepus europ… Lagomorpha Mammalia  
 8 EHM067538   s__Par…         93.1          1.71 4147480 46.0…  12692     485 Lepus europ… Lagomorpha Mammalia  
 9 GCF_001405… Paraba…         99.0          0.98      NA <NA>      NA      NA <NA>         <NA>       <NA>      
10 GCF_002206… Paraba…         99.4          2.27      NA <NA>      NA      NA <NA>         <NA>       <NA>      
# ℹ 34 more rows
# ℹ 4 more variables: assembly_type <chr>, sample_type <chr>, source <chr>, gtdb_taxonomy <chr>
…
