Chapter 9 Virulence factors analysis | AlberdiLab | Master Thesis
…
fisher_results <- fisher_results %>%
  mutate(
    prop_animal  = n_mags_animal  / (n_mags_animal  + absent_animal),
    prop_human = n_mags_human / (n_mags_human + absent_human),
    diff_prop = prop_human - prop_animal
  )

fisher_results%>% filter(p_adj < 0.05) 

# A tibble: 200 × 12
   vf     n_mags_animal n_mags_human n_mags_NA absent_animal absent_human absent_NA  p_value   p_adj prop_animal
   <chr>          <int>        <int>     <int>         <int>        <int>     <int>    <dbl>   <dbl>       <dbl>
 1 VF0003            41            8        91            43           34       -90 0.00173  0.00397       0.488
 2 VF0014            40            8        89            44           34       -88 0.00189  0.00397       0.476
 3 VF0028            38            6        57            46           36       -56 0.000651 0.00397       0.452
 4 VF0033            41            8        91            43           34       -90 0.00173  0.00397       0.488
 5 VF0043            14            1        38            70           41       -37 0.0197   0.0354        0.167
 6 VF0044            41            8        91            43           34       -90 0.00173  0.00397       0.488
 7 VF0052            41            8        91            43           34       -90 0.00173  0.00397       0.488
 8 VF0056            40            8        91            44           34       -90 0.00189  0.00397       0.476
 9 VF0062            40            8        91            44           34       -90 0.00189  0.00397       0.476
10 VF0072            41            8        91            43           34       -90 0.00173  0.00397       0.488
# ℹ 190 more rows
# ℹ 2 more variables: prop_human <dbl>, diff_prop <dbl>
…
